ParadigmDataGroup, LLC - purrr updates (v1.0.0)
…
Warning: Automatic coercion from logical to character was deprecated in purrr 1.0.0. Please use an explicit call to as.character() within map_chr() instead

map_vec()

map_vec(.x = mixed_list, .f = lubridate::is.Date)

booleans integers  doubles  strings    dates 
   FALSE    FALSE    FALSE    FALSE     TRUE 

map for data.frame and tibbles

swdata <- dplyr::select(dplyr::starwars, !where(is.list))
purrr::map_df(.x = swdata, .f = tolower)

# A tibble: 87 × 11
   name     height mass  hair_color skin_color eye_color birth_year sex   gender
   <chr>    <chr>  <chr> <chr>      <chr>      <chr>     <chr>      <chr> <chr> 
 1 luke sk… 172    77    blond      fair       blue      19         male  mascu…
 2 c-3po    167    75    <NA>       gold       yellow    112        none  mascu…
 3 r2-d2    96     32    <NA>       white, bl… red       33         none  mascu…
 4 darth v… 202    136   none       white      yellow    41.9       male  mascu…
 5 leia or… 150    49    brown      light      brown     19         fema… femin…
 6 owen la… 178    120   brown, gr… light      blue      52         male  mascu…
 7 beru wh… 165    75    brown      light      blue      47         fema… femin…
 8 r5-d4    97     32    <NA>       white, red red       <NA>       none  mascu…
 9 biggs d… 183    84    black      light      brown     24         male  mascu…
10 obi-wan… 182    77    auburn, w… fair       blue-gray 57         male  mascu…
# ℹ 77 more rows
# ℹ 2 more variables: homeworld <chr>, species <chr>
…
